Getting https://swapi.dev/api/people
Getting https://swapi.dev/api/people/?page=2
Getting https://swapi.dev/api/people/?page=3
Getting https://swapi.dev/api/people/?page=4
Getting https://swapi.dev/api/people/?page=5
Getting https://swapi.dev/api/people/?page=6
Getting https://swapi.dev/api/people/?page=7
Getting https://swapi.dev/api/people/?page=8
Getting https://swapi.dev/api/people/?page=9
┌────────────────────┬─────────┬─────────┬───┬──────────────────────┬──────────────────────┬──────────────────────┐
│        name        │ height  │  mass   │ … │       created        │        edited        │         url          │
│      varchar       │ varchar │ varchar │   │       varchar        │       varchar        │       varchar        │
├────────────────────┼─────────┼─────────┼───┼──────────────────────┼──────────────────────┼──────────────────────┤
│ Luke Skywalker     │ 172     │ 77      │ … │ 2014-12-09T13:50:5…  │ 2014-12-20T21:17:5…  │ https://swapi.dev/…  │
│ C-3PO              │ 167     │ 75      │ … │ 2014-12-10T15:10:5…  │ 2014-12-20T21:17:5…  │ https://swapi.dev/…  │
│ R2-D2              │ 96      │ 32      │ … │ 2014-12-10T15:11:5…  │ 2014-12-20T21:17:5…  │ https://swapi.dev/…  │
│ Darth Vader        │ 202     │ 136     │ … │ 2014-12-10T15:18:2…  │ 2014-12-20T21:17:5…  │ https://swapi.dev/…  │
│ Leia Organa        │ 150     │ 49      │ … │ 2014-12-10T15:20:0…  │ 2014-12-20T21:17:5…  │ https://swapi.dev/…  │
│ Owen Lars          │ 178     │ 120     │ … │ 2014-12-10T15:52:1…  │ 2014-12-20T21:17:5…  │ https://swapi.dev/…  │
│ Beru Whitesun lars │ 165     │ 75      │ … │ 2014-12-10T15:53:4…  │ 2014-12-20T21:17:5…  │ https://swapi.dev/…  │
│ R5-D4              │ 97      │ 32      │ … │ 2014-12-10T15:57:5…  │ 2014-12-20T21:17:5…  │ https://swapi.dev/…  │
│ Biggs Darklighter  │ 183     │ 84      │ … │ 2014-12-10T15:59:5…  │ 2014-12-20T21:17:5…  │ https://swapi.dev/…  │
│ Obi-Wan Kenobi     │ 182     │ 77      │ … │ 2014-12-10T16:16:2…  │ 2014-12-20T21:17:5…  │ https://swapi.dev/…  │
│     ·              │  ·      │ ·       │ · │          ·           │          ·           │          ·           │
│     ·              │  ·      │ ·       │ · │          ·           │          ·           │          ·           │
│     ·              │  ·      │ ·       │ · │          ·           │          ·           │          ·           │
│ Jocasta Nu         │ 167     │ unknown │ … │ 2014-12-20T17:32:5…  │ 2014-12-20T21:17:5…  │ https://swapi.dev/…  │
│ R4-P17             │ 96      │ unknown │ … │ 2014-12-20T17:43:3…  │ 2014-12-20T21:17:5…  │ https://swapi.dev/…  │
│ Wat Tambor         │ 193     │ 48      │ … │ 2014-12-20T17:53:5…  │ 2014-12-20T21:17:5…  │ https://swapi.dev/…  │
│ San Hill           │ 191     │ unknown │ … │ 2014-12-20T17:58:1…  │ 2014-12-20T21:17:5…  │ https://swapi.dev/…  │
│ Shaak Ti           │ 178     │ 57      │ … │ 2014-12-20T18:44:0…  │ 2014-12-20T21:17:5…  │ https://swapi.dev/…  │
│ Grievous           │ 216     │ 159     │ … │ 2014-12-20T19:43:5…  │ 2014-12-20T21:17:5…  │ https://swapi.dev/…  │
│ Tarfful            │ 234     │ 136     │ … │ 2014-12-20T19:46:3…  │ 2014-12-20T21:17:5…  │ https://swapi.dev/…  │
│ Raymus Antilles    │ 188     │ 79      │ … │ 2014-12-20T19:49:3…  │ 2014-12-20T21:17:5…  │ https://swapi.dev/…  │
│ Sly Moore          │ 178     │ 48      │ … │ 2014-12-20T20:18:3…  │ 2014-12-20T21:17:5…  │ https://swapi.dev/…  │
│ Tion Medon         │ 206     │ 80      │ … │ 2014-12-20T20:35:0…  │ 2014-12-20T21:17:5…  │ https://swapi.dev/…  │
├────────────────────┴─────────┴─────────┴───┴──────────────────────┴──────────────────────┴──────────────────────┤
│ 82 rows (20 shown)                                                                         16 columns (6 shown) │
└─────────────────────────────────────────────────────────────────────────────────────────────────────────────────┘
