Getting https://swapi.dev/api/planets
Getting https://swapi.dev/api/planets/?page=2
Getting https://swapi.dev/api/planets/?page=3
Getting https://swapi.dev/api/planets/?page=4
Getting https://swapi.dev/api/planets/?page=5
Getting https://swapi.dev/api/planets/?page=6
┌──────────────┬─────────────────┬────────────────┬───┬──────────────────────┬──────────────────────┐
│     name     │ rotation_period │ orbital_period │ … │        edited        │         url          │
│   varchar    │     varchar     │    varchar     │   │       varchar        │       varchar        │
├──────────────┼─────────────────┼────────────────┼───┼──────────────────────┼──────────────────────┤
│ Tatooine     │ 23              │ 304            │ … │ 2014-12-20T20:58:1…  │ https://swapi.dev/…  │
│ Alderaan     │ 24              │ 364            │ … │ 2014-12-20T20:58:1…  │ https://swapi.dev/…  │
│ Yavin IV     │ 24              │ 4818           │ … │ 2014-12-20T20:58:1…  │ https://swapi.dev/…  │
│ Hoth         │ 23              │ 549            │ … │ 2014-12-20T20:58:1…  │ https://swapi.dev/…  │
│ Dagobah      │ 23              │ 341            │ … │ 2014-12-20T20:58:1…  │ https://swapi.dev/…  │
│ Bespin       │ 12              │ 5110           │ … │ 2014-12-20T20:58:1…  │ https://swapi.dev/…  │
│ Endor        │ 18              │ 402            │ … │ 2014-12-20T20:58:1…  │ https://swapi.dev/…  │
│ Naboo        │ 26              │ 312            │ … │ 2014-12-20T20:58:1…  │ https://swapi.dev/…  │
│ Coruscant    │ 24              │ 368            │ … │ 2014-12-20T20:58:1…  │ https://swapi.dev/…  │
│ Kamino       │ 27              │ 463            │ … │ 2014-12-20T20:58:1…  │ https://swapi.dev/…  │
│   ·          │ ·               │  ·             │ · │          ·           │          ·           │
│   ·          │ ·               │  ·             │ · │          ·           │          ·           │
│   ·          │ ·               │  ·             │ · │          ·           │          ·           │
│ Mirial       │ unknown         │ unknown        │ … │ 2014-12-20T20:58:1…  │ https://swapi.dev/…  │
│ Serenno      │ unknown         │ unknown        │ … │ 2014-12-20T20:58:1…  │ https://swapi.dev/…  │
│ Concord Dawn │ unknown         │ unknown        │ … │ 2014-12-20T20:58:1…  │ https://swapi.dev/…  │
│ Zolan        │ unknown         │ unknown        │ … │ 2014-12-20T20:58:1…  │ https://swapi.dev/…  │
│ Ojom         │ unknown         │ unknown        │ … │ 2014-12-20T20:58:1…  │ https://swapi.dev/…  │
│ Skako        │ 27              │ 384            │ … │ 2014-12-20T20:58:1…  │ https://swapi.dev/…  │
│ Muunilinst   │ 28              │ 412            │ … │ 2014-12-20T20:58:1…  │ https://swapi.dev/…  │
│ Shili        │ unknown         │ unknown        │ … │ 2014-12-20T20:58:1…  │ https://swapi.dev/…  │
│ Kalee        │ 23              │ 378            │ … │ 2014-12-20T20:58:1…  │ https://swapi.dev/…  │
│ Umbara       │ unknown         │ unknown        │ … │ 2014-12-20T20:58:1…  │ https://swapi.dev/…  │
├──────────────┴─────────────────┴────────────────┴───┴──────────────────────┴──────────────────────┤
│ 60 rows (20 shown)                                                           14 columns (5 shown) │
└───────────────────────────────────────────────────────────────────────────────────────────────────┘
